[
  {
    "Class": 1,
    "ExperiencePoints": 10000,
    "Name": "Gotch Urarse",
    "HitPoints": {
      "Maximum": 8,
      "Current": 8
    },
    "Attributes": {
      "Strength": {
        "BaseValue": 10
      },
      "Dexterity": {
        "BaseValue": 10
      },
      "Intelligence": {
        "BaseValue": 10
      },
      "Wisdom": {
        "BaseValue": 10
      },
      "Charisma": {
        "BaseValue": 10
      },
      "Constitution": {
        "BaseValue": 10
      }
    },
    "ArmorRating": 10
  },
  {
    "Class": 3,
    "ExperiencePoints": 40000,
    "Name": "Empathy Rests",
    "HitPoints": {
      "Maximum": 8,
      "Current": 8
    },
    "Attributes": {
      "Strength": {
        "BaseValue": 10
      },
      "Dexterity": {
        "BaseValue": 10
      },
      "Intelligence": {
        "BaseValue": 10
      },
      "Wisdom": {
        "BaseValue": 10
      },
      "Charisma": {
        "BaseValue": 10
      },
      "Constitution": {
        "BaseValue": 10
      }
    },
    "ArmorRating": 10
  }
]